B-PER	count	probability
Ian	15	0.05
Clay	13	0.043333333333333335
Cindy	11	0.03666666666666667
Rob	11	0.03666666666666667
Bart	9	0.03
God	5	0.016666666666666666
Paul	5	0.016666666666666666
Marcus	5	0.016666666666666666
Anuj	4	0.013333333333333334
Dewitt	4	0.013333333333333334
Bob	4	0.013333333333333334
Matt	4	0.013333333333333334
Taylor's	4	0.013333333333333334
Slowig's	4	0.013333333333333334
Dave	4	0.013333333333333334
Axel	4	0.013333333333333334
W	3	0.01
Nils	3	0.01
Thomas	3	0.01
Schmidt	3	0.01
Breuer	3	0.01
Barth's	3	0.01
Brian	3	0.01
S	3	0.01
Morimoto's	3	0.01
X	3	0.01
Nick	3	0.01
Latimer	3	0.01
Peter	3	0.01
John	3	0.01
Philip	3	0.01
Miller	2	0.006666666666666667
Jackie	2	0.006666666666666667
Gries	2	0.006666666666666667
G	2	0.006666666666666667
Fritzsche	2	0.006666666666666667
Harold	2	0.006666666666666667
Michael	2	0.006666666666666667
Deville's	2	0.006666666666666667
Waibel	2	0.006666666666666667
Lisa	2	0.006666666666666667
Tony	2	0.006666666666666667
Jens	2	0.006666666666666667
C	2	0.006666666666666667
Bottermaker	2	0.006666666666666667
Waibel's	2	0.006666666666666667
Zaphod	2	0.006666666666666667
Bub's	2	0.006666666666666667
Lew	2	0.006666666666666667
Bea	2	0.006666666666666667
James	2	0.006666666666666667
Dietmar	2	0.006666666666666667
Alexander	2	0.006666666666666667
Fred's	2	0.006666666666666667
Sam	2	0.006666666666666667
Scheytt	2	0.006666666666666667
M	2	0.006666666666666667
Winterbutter	2	0.006666666666666667
Patty	2	0.006666666666666667
Ralph	2	0.006666666666666667
Ann	2	0.006666666666666667
Sullivan	2	0.006666666666666667
Gerald	2	0.006666666666666667
Krauser	2	0.006666666666666667
Mark	2	0.006666666666666667
Wahlster's	2	0.006666666666666667
Alex	1	0.0033333333333333335
Joe	1	0.0033333333333333335
Branko	1	0.0033333333333333335
Fred	1	0.0033333333333333335
Wolfgang	1	0.0033333333333333335
Charles	1	0.0033333333333333335
Matthias	1	0.0033333333333333335
Robert	1	0.0033333333333333335
Wally	1	0.0033333333333333335
Nora	1	0.0033333333333333335
Hoffmeir	1	0.0033333333333333335
R	1	0.0033333333333333335
Reuse's	1	0.0033333333333333335
Tom's	1	0.0033333333333333335
Wean	1	0.0033333333333333335
Watanabe	1	0.0033333333333333335
Trevor	1	0.0033333333333333335
Hayes	1	0.0033333333333333335
D	1	0.0033333333333333335
Gott	1	0.0033333333333333335
Jack	1	0.0033333333333333335
Helmut	1	0.0033333333333333335
Denny's	1	0.0033333333333333335
Arthur	1	0.0033333333333333335
Horst	1	0.0033333333333333335
Harold's	1	0.0033333333333333335
Breuler	1	0.0033333333333333335
Dan	1	0.0033333333333333335
Marc	1	0.0033333333333333335
Gries'	1	0.0033333333333333335
Winterbottom	1	0.0033333333333333335
House	1	0.0033333333333333335
Turner	1	0.0033333333333333335
Sagisaka's	1	0.0033333333333333335
Helman	1	0.0033333333333333335
Linda	1	0.0033333333333333335
Andrew	1	0.0033333333333333335
Ben	1	0.0033333333333333335
Andreas	1	0.0033333333333333335
Hans	1	0.0033333333333333335
Douglas	1	0.0033333333333333335
Obrian	1	0.0033333333333333335
Darlene	1	0.0033333333333333335
Torsten	1	0.0033333333333333335
Lincoln's	1	0.0033333333333333335
Bob's	1	0.0033333333333333335
Hutsell	1	0.0033333333333333335
Helwig	1	0.0033333333333333335
Iida's	1	0.0033333333333333335
Ginkinspiel	1	0.0033333333333333335
Morimoto	1	0.0033333333333333335
Larry	1	0.0033333333333333335
Amy	1	0.0033333333333333335
Corinna	1	0.0033333333333333335
Heiner	1	0.0033333333333333335
Daniel	1	0.0033333333333333335
Jochen	1	0.0033333333333333335
Pete	1	0.0033333333333333335
Yamazaki	1	0.0033333333333333335
Jennifer	1	0.0033333333333333335
Norbert	1	0.0033333333333333335
Lysander	1	0.0033333333333333335
Juergen	1	0.0033333333333333335
"""""""M""""""""ockl"""""""	1	0.0033333333333333335
Irene	1	0.0033333333333333335
Wolfram	1	0.0033333333333333335
Gingel	1	0.0033333333333333335
Tobias	1	0.0033333333333333335
Meier	1	0.0033333333333333335
Florian	1	0.0033333333333333335
Marcy	1	0.0033333333333333335
Russell	1	0.0033333333333333335
Durante	1	0.0033333333333333335
Uli	1	0.0033333333333333335
Smith	1	0.0033333333333333335
Mike	1	0.0033333333333333335
K	1	0.0033333333333333335
Kleinschmidt's	1	0.0033333333333333335
Kevin	1	0.0033333333333333335
